<svg xmlns="http://www.w3.org/2000/svg" viewBox="0 0 196 205.09">
      <path fill="#fff" d="M128.6,109.48c-6.08,0-10.79,2.24-14.12,6.71-3.34,4.47-5.01,10.79-5.01,18.93v.1c0,7.41,1.75,13.11,5.26,17.08,3.51,3.97,8.46,5.96,14.88,5.96s11.55-2,15.03-6.01c3.47-4.01,5.21-9.72,5.21-17.13v-.1c0-8.15-1.84-14.44-5.51-18.88-3.67-4.44-8.92-6.66-15.73-6.66Z"/>
      <path fill="#fff" d="M0,0v205.09h196V0H0ZM69.24,176.4h-20.44V52.98l-20.74,12.72v-21.14l20.74-13.82h20.44v145.65ZM170.27,133.42c0,14.09-3.54,25.03-10.62,32.81-7.08,7.78-17.1,11.67-30.05,11.67s-22.87-3.84-29.95-11.52c-7.08-7.68-10.62-18.5-10.62-32.46v-.1c0-6.28.87-12.94,2.6-19.98,1.74-7.04,4.24-13.84,7.51-20.38l31.65-62.71h22.04l-32.38,63.27c3.48-2.77,8.09-4.17,13.85-4.17,11.42,0,20.27,3.79,26.54,11.37,6.28,7.58,9.42,18.28,9.42,32.1v.1Z"/>
</svg>