<svg xmlns="http://www.w3.org/2000/svg" viewBox="0 0 196 205.09">
      <path fill="#fff" d="M129.7,48.88c-6.48,0-11.47,2.11-14.98,6.31s-5.26,10.18-5.26,17.93v.1c0,7.88,1.75,13.97,5.26,18.28,3.51,4.31,8.5,6.46,14.98,6.46s11.37-2.17,14.88-6.51c3.51-4.34,5.26-10.45,5.26-18.33v-.1c0-7.68-1.75-13.62-5.26-17.83s-8.46-6.31-14.88-6.31Z"/>
      <path fill="#fff" d="M0,0v205.09h196V0H0ZM69.24,176.4h-20.44V52.98l-20.74,12.72v-21.14l20.74-13.82h20.44v145.65ZM170.27,74.42c0,5.95-.87,12.37-2.6,19.28-1.74,6.91-4.27,13.67-7.61,20.29l-31.05,62.41h-22.04l32.39-63.9c-1.06.79-2.24,1.46-3.54,2-3.41,1.4-7.35,2.1-11.82,2.1-10.49,0-18.93-3.89-25.34-11.67-6.41-7.78-9.62-18.11-9.62-31v-.1c0-14.16,3.56-25.12,10.67-32.91,7.11-7.78,17.11-11.67,30-11.67s22.87,3.92,29.95,11.77c7.08,7.85,10.62,18.95,10.62,33.31v.1Z"/>
</svg>