<svg ixmlns="http://www.w3.org/2000/svg" viewBox="0 0 196 205.09">
      <path fill="#fff" d="M148.53,48.38c-7.48,0-12.87,1.94-16.18,5.81-3.31,3.87-4.96,9.25-4.96,16.13v66.21c0,6.81,1.65,12.17,4.96,16.08,3.31,3.91,8.7,5.86,16.18,5.86s12.87-1.95,16.18-5.86c3.31-3.91,4.96-9.27,4.96-16.08v-66.21c0-6.88-1.65-12.25-4.96-16.13-3.31-3.87-8.7-5.81-16.18-5.81Z"/>
      <path fill="#fff" d="M0,0v205.09h196V0H0ZM91.17,176.4H9.03v-17.73l50.79-67.72c2.94-3.87,5.22-7.88,6.86-12.02,1.63-4.14,2.46-8.05,2.46-11.72v-.2c0-5.81-1.7-10.32-5.11-13.52s-8.25-4.81-14.53-4.81c-5.88,0-10.67,1.75-14.38,5.26-3.71,3.51-5.96,8.46-6.76,14.88v.1H7.23v-.1c1.8-12.55,6.38-22.29,13.72-29.2,7.34-6.91,16.79-10.37,28.35-10.37,13.09,0,23.21,3.31,30.35,9.92,7.14,6.61,10.72,15.96,10.72,28.05v.1c0,5.14-1.07,10.54-3.21,16.18-2.14,5.64-5.11,11.04-8.91,16.18l-42.17,57.3h55.09v19.43ZM190.1,136.53c0,12.89-3.49,23.01-10.47,30.35-6.98,7.35-17.35,11.02-31.1,11.02s-24.29-3.72-31.2-11.17c-6.91-7.45-10.37-17.51-10.37-30.2v-66.21c0-12.89,3.51-23.01,10.52-30.35,7.01-7.35,17.36-11.02,31.05-11.02s24.12,3.66,31.1,10.97,10.47,17.45,10.47,30.4v66.21Z"/>
</svg>